1 1.00000000e+00 2.00000000e+00
2 5.00000000e-01 1.50000000e+00
3 2.50000000e-01 1.25000000e+00
4 1.25000000e-01 1.12500000e+00
5 6.25000000e-02 1.06250000e+00
6 3.12500000e-02 1.03125000e+00
7 1.56250000e-02 1.01562500e+00
8 7.81250000e-03 1.00781250e+00
9 3.90625000e-03 1.00390625e+00
10 1.95312500e-03 1.00195312e+00
11 9.76562500e-04 1.00097656e+00
12 4.88281250e-04 1.00048828e+00
13 2.44140625e-04 1.00024414e+00
14 1.22070312e-04 1.00012207e+00
15 6.10351562e-05 1.00006104e+00
16 3.05175781e-05 1.00003052e+00
17 1.52587891e-05 1.00001526e+00
18 7.62939453e-06 1.00000763e+00
19 3.81469727e-06 1.00000381e+00
20 1.90734863e-06 1.00000191e+00
21 9.53674316e-07 1.00000095e+00
22 4.76837158e-07 1.00000048e+00
23 2.38418579e-07 1.00000024e+00
24 1.19209290e-07 1.00000012e+00
