1 1.00000000e+00 2.00000000e+00
1 5.00000000e-01 1.50000000e+00
1 2.50000000e-01 1.25000000e+00
1 1.25000000e-01 1.12500000e+00
1 6.25000000e-02 1.06250000e+00
1 3.12500000e-02 1.03125000e+00
1 1.56250000e-02 1.01562500e+00
1 7.81250000e-03 1.00781250e+00
1 3.90625000e-03 1.00390625e+00
1 1.95312500e-03 1.00195312e+00
1 9.76562500e-04 1.00097656e+00
1 4.88281250e-04 1.00048828e+00
1 2.44140625e-04 1.00024414e+00
1 1.22070312e-04 1.00012207e+00
1 6.10351562e-05 1.00006104e+00
1 3.05175781e-05 1.00003052e+00
1 1.52587891e-05 1.00001526e+00
1 7.62939453e-06 1.00000763e+00
1 3.81469727e-06 1.00000381e+00
1 1.90734863e-06 1.00000191e+00
1 9.53674316e-07 1.00000095e+00
1 4.76837158e-07 1.00000048e+00
1 2.38418579e-07 1.00000024e+00
1 1.19209290e-07 1.00000012e+00
1 5.96046448e-08 1.00000006e+00
1 2.98023224e-08 1.00000003e+00
1 1.49011612e-08 1.00000001e+00
1 7.45058060e-09 1.00000001e+00
1 3.72529030e-09 1.00000000e+00
1 1.86264515e-09 1.00000000e+00
1 9.31322575e-10 1.00000000e+00
1 4.65661287e-10 1.00000000e+00
1 2.32830644e-10 1.00000000e+00
1 1.16415322e-10 1.00000000e+00
1 5.82076609e-11 1.00000000e+00
1 2.91038305e-11 1.00000000e+00
1 1.45519152e-11 1.00000000e+00
1 7.27595761e-12 1.00000000e+00
1 3.63797881e-12 1.00000000e+00
1 1.81898940e-12 1.00000000e+00
1 9.09494702e-13 1.00000000e+00
1 4.54747351e-13 1.00000000e+00
1 2.27373675e-13 1.00000000e+00
1 1.13686838e-13 1.00000000e+00
1 5.68434189e-14 1.00000000e+00
1 2.84217094e-14 1.00000000e+00
1 1.42108547e-14 1.00000000e+00
1 7.10542736e-15 1.00000000e+00
1 3.55271368e-15 1.00000000e+00
1 1.77635684e-15 1.00000000e+00
1 8.88178420e-16 1.00000000e+00
1 4.44089210e-16 1.00000000e+00
1 2.22044605e-16 1.00000000e+00
